^C:\USERS\ROBERT\ONEDRIVE\PROJEKTE\FLUTTER\CRYPTO_APP\WINDOWS\RUNNER\MAIN.CPP
/c /IC:\USERS\ROBERT\ONEDRIVE\PROJEKTE\FLUTTER\CRYPTO_APP\WINDOWS /IC:\USERS\ROBERT\ONEDRIVE\PROJEKTE\FLUTTER\CRYPTO_APP\WINDOWS\FLUTTER\EPHEMERAL /IC:\USERS\ROBERT\ONEDRIVE\PROJEKTE\FLUTTER\CRYPTO_APP\WINDOWS\FLUTTER\EPHEMERAL\CPP_CLIENT_WRAPPER\INCLUDE /Zi /nologo /W4 /WX /diagnostics:column /Od /Ob0 /D _UNICODE /D UNICODE /D WIN32 /D _WINDOWS /D _HAS_EXCEPTIONS=0 /D _DEBUG /D NOMINMAX /D UNICODE /D _UNICODE /D "CMAKE_INTDIR=\"Debug\"" /Gm- /EHsc /RTC1 /MDd /GS /fp:precise /Zc:wchar_t /Zc:forScope /Zc:inline /GR /std:c++17 /Fo"CRYPTO_APP.DIR\DEBUG\\" /Fd"CRYPTO_APP.DIR\DEBUG\VC143.PDB" /external:W4 /Gd /TP /wd4100 C:\USERS\ROBERT\ONEDRIVE\PROJEKTE\FLUTTER\CRYPTO_APP\WINDOWS\RUNNER\MAIN.CPP
^C:\USERS\ROBERT\ONEDRIVE\PROJEKTE\FLUTTER\CRYPTO_APP\WINDOWS\RUNNER\UTILS.CPP
/c /IC:\USERS\ROBERT\ONEDRIVE\PROJEKTE\FLUTTER\CRYPTO_APP\WINDOWS /IC:\USERS\ROBERT\ONEDRIVE\PROJEKTE\FLUTTER\CRYPTO_APP\WINDOWS\FLUTTER\EPHEMERAL /IC:\USERS\ROBERT\ONEDRIVE\PROJEKTE\FLUTTER\CRYPTO_APP\WINDOWS\FLUTTER\EPHEMERAL\CPP_CLIENT_WRAPPER\INCLUDE /Zi /nologo /W4 /WX /diagnostics:column /Od /Ob0 /D _UNICODE /D UNICODE /D WIN32 /D _WINDOWS /D _HAS_EXCEPTIONS=0 /D _DEBUG /D NOMINMAX /D UNICODE /D _UNICODE /D "CMAKE_INTDIR=\"Debug\"" /Gm- /EHsc /RTC1 /MDd /GS /fp:precise /Zc:wchar_t /Zc:forScope /Zc:inline /GR /std:c++17 /Fo"CRYPTO_APP.DIR\DEBUG\\" /Fd"CRYPTO_APP.DIR\DEBUG\VC143.PDB" /external:W4 /Gd /TP /wd4100 C:\USERS\ROBERT\ONEDRIVE\PROJEKTE\FLUTTER\CRYPTO_APP\WINDOWS\RUNNER\UTILS.CPP
^C:\USERS\ROBERT\ONEDRIVE\PROJEKTE\FLUTTER\CRYPTO_APP\WINDOWS\RUNNER\WIN32_WINDOW.CPP
/c /IC:\USERS\ROBERT\ONEDRIVE\PROJEKTE\FLUTTER\CRYPTO_APP\WINDOWS /IC:\USERS\ROBERT\ONEDRIVE\PROJEKTE\FLUTTER\CRYPTO_APP\WINDOWS\FLUTTER\EPHEMERAL /IC:\USERS\ROBERT\ONEDRIVE\PROJEKTE\FLUTTER\CRYPTO_APP\WINDOWS\FLUTTER\EPHEMERAL\CPP_CLIENT_WRAPPER\INCLUDE /Zi /nologo /W4 /WX /diagnostics:column /Od /Ob0 /D _UNICODE /D UNICODE /D WIN32 /D _WINDOWS /D _HAS_EXCEPTIONS=0 /D _DEBUG /D NOMINMAX /D UNICODE /D _UNICODE /D "CMAKE_INTDIR=\"Debug\"" /Gm- /EHsc /RTC1 /MDd /GS /fp:precise /Zc:wchar_t /Zc:forScope /Zc:inline /GR /std:c++17 /Fo"CRYPTO_APP.DIR\DEBUG\\" /Fd"CRYPTO_APP.DIR\DEBUG\VC143.PDB" /external:W4 /Gd /TP /wd4100 C:\USERS\ROBERT\ONEDRIVE\PROJEKTE\FLUTTER\CRYPTO_APP\WINDOWS\RUNNER\WIN32_WINDOW.CPP
^C:\USERS\ROBERT\ONEDRIVE\PROJEKTE\FLUTTER\CRYPTO_APP\WINDOWS\FLUTTER\GENERATED_PLUGIN_REGISTRANT.CC
/c /IC:\USERS\ROBERT\ONEDRIVE\PROJEKTE\FLUTTER\CRYPTO_APP\WINDOWS /IC:\USERS\ROBERT\ONEDRIVE\PROJEKTE\FLUTTER\CRYPTO_APP\WINDOWS\FLUTTER\EPHEMERAL /IC:\USERS\ROBERT\ONEDRIVE\PROJEKTE\FLUTTER\CRYPTO_APP\WINDOWS\FLUTTER\EPHEMERAL\CPP_CLIENT_WRAPPER\INCLUDE /Zi /nologo /W4 /WX /diagnostics:column /Od /Ob0 /D _UNICODE /D UNICODE /D WIN32 /D _WINDOWS /D _HAS_EXCEPTIONS=0 /D _DEBUG /D NOMINMAX /D UNICODE /D _UNICODE /D "CMAKE_INTDIR=\"Debug\"" /Gm- /EHsc /RTC1 /MDd /GS /fp:precise /Zc:wchar_t /Zc:forScope /Zc:inline /GR /std:c++17 /Fo"CRYPTO_APP.DIR\DEBUG\\" /Fd"CRYPTO_APP.DIR\DEBUG\VC143.PDB" /external:W4 /Gd /TP /wd4100 C:\USERS\ROBERT\ONEDRIVE\PROJEKTE\FLUTTER\CRYPTO_APP\WINDOWS\FLUTTER\GENERATED_PLUGIN_REGISTRANT.CC
^C:\USERS\ROBERT\ONEDRIVE\PROJEKTE\FLUTTER\CRYPTO_APP\WINDOWS\RUNNER\FLUTTER_WINDOW.CPP
/c /IC:\USERS\ROBERT\ONEDRIVE\PROJEKTE\FLUTTER\CRYPTO_APP\WINDOWS /IC:\USERS\ROBERT\ONEDRIVE\PROJEKTE\FLUTTER\CRYPTO_APP\WINDOWS\FLUTTER\EPHEMERAL /IC:\USERS\ROBERT\ONEDRIVE\PROJEKTE\FLUTTER\CRYPTO_APP\WINDOWS\FLUTTER\EPHEMERAL\CPP_CLIENT_WRAPPER\INCLUDE /Zi /nologo /W4 /WX /diagnostics:column /Od /Ob0 /D _UNICODE /D UNICODE /D WIN32 /D _WINDOWS /D _HAS_EXCEPTIONS=0 /D _DEBUG /D NOMINMAX /D UNICODE /D _UNICODE /D "CMAKE_INTDIR=\"Debug\"" /Gm- /EHsc /RTC1 /MDd /GS /fp:precise /Zc:wchar_t /Zc:forScope /Zc:inline /GR /std:c++17 /Fo"CRYPTO_APP.DIR\DEBUG\\" /Fd"CRYPTO_APP.DIR\DEBUG\VC143.PDB" /external:W4 /Gd /TP /wd4100 C:\USERS\ROBERT\ONEDRIVE\PROJEKTE\FLUTTER\CRYPTO_APP\WINDOWS\RUNNER\FLUTTER_WINDOW.CPP
