^C:\USERS\ROBERT\ONEDRIVE\PROJEKTE\FLUTTER\CRYPTO_APP\WINDOWS\FLUTTER\EPHEMERAL\CPP_CLIENT_WRAPPER\CORE_IMPLEMENTATIONS.CC|C:\USERS\ROBERT\ONEDRIVE\PROJEKTE\FLUTTER\CRYPTO_APP\WINDOWS\FLUTTER\EPHEMERAL\CPP_CLIENT_WRAPPER\PLUGIN_REGISTRAR.CC|C:\USERS\ROBERT\ONEDRIVE\PROJEKTE\FLUTTER\CRYPTO_APP\WINDOWS\FLUTTER\EPHEMERAL\CPP_CLIENT_WRAPPER\STANDARD_CODEC.CC
C:\USERS\ROBERT\ONEDRIVE\PROJEKTE\FLUTTER\CRYPTO_APP\BUILD\WINDOWS\FLUTTER\DEBUG\FLUTTER_WRAPPER_PLUGIN.PDB
C:\USERS\ROBERT\ONEDRIVE\PROJEKTE\FLUTTER\CRYPTO_APP\BUILD\WINDOWS\FLUTTER\FLUTTER_WRAPPER_PLUGIN.DIR\DEBUG\PLUGIN_REGISTRAR.OBJ
C:\USERS\ROBERT\ONEDRIVE\PROJEKTE\FLUTTER\CRYPTO_APP\BUILD\WINDOWS\FLUTTER\FLUTTER_WRAPPER_PLUGIN.DIR\DEBUG\STANDARD_CODEC.OBJ
C:\USERS\ROBERT\ONEDRIVE\PROJEKTE\FLUTTER\CRYPTO_APP\BUILD\WINDOWS\FLUTTER\FLUTTER_WRAPPER_PLUGIN.DIR\DEBUG\CORE_IMPLEMENTATIONS.OBJ
^C:\USERS\ROBERT\ONEDRIVE\PROJEKTE\FLUTTER\CRYPTO_APP\WINDOWS\FLUTTER\EPHEMERAL\CPP_CLIENT_WRAPPER\CORE_IMPLEMENTATIONS.CC
C:\USERS\ROBERT\ONEDRIVE\PROJEKTE\FLUTTER\CRYPTO_APP\BUILD\WINDOWS\FLUTTER\DEBUG\FLUTTER_WRAPPER_PLUGIN.PDB
^C:\USERS\ROBERT\ONEDRIVE\PROJEKTE\FLUTTER\CRYPTO_APP\WINDOWS\FLUTTER\EPHEMERAL\CPP_CLIENT_WRAPPER\STANDARD_CODEC.CC
C:\USERS\ROBERT\ONEDRIVE\PROJEKTE\FLUTTER\CRYPTO_APP\BUILD\WINDOWS\FLUTTER\DEBUG\FLUTTER_WRAPPER_PLUGIN.PDB
^C:\USERS\ROBERT\ONEDRIVE\PROJEKTE\FLUTTER\CRYPTO_APP\WINDOWS\FLUTTER\EPHEMERAL\CPP_CLIENT_WRAPPER\PLUGIN_REGISTRAR.CC
C:\USERS\ROBERT\ONEDRIVE\PROJEKTE\FLUTTER\CRYPTO_APP\BUILD\WINDOWS\FLUTTER\DEBUG\FLUTTER_WRAPPER_PLUGIN.PDB
