{
  "configVersion": 2,
  "packages": [
    {
      "name": "animated_text_kit",
      "rootUri": "file:///C:/src/flutter/.pub-cache/hosted/pub.dartlang.org/animated_text_kit-4.2.1",
      "packageUri": "lib/",
      "languageVersion": "2.12"
    },
    {
      "name": "async",
      "rootUri": "file:///C:/src/flutter/.pub-cache/hosted/pub.dartlang.org/async-2.8.2",
      "packageUri": "lib/",
      "languageVersion": "2.12"
    },
    {
      "name": "boolean_selector",
      "rootUri": "file:///C:/src/flutter/.pub-cache/hosted/pub.dartlang.org/boolean_selector-2.1.0",
      "packageUri": "lib/",
      "languageVersion": "2.12"
    },
    {
      "name": "characters",
      "rootUri": "file:///C:/src/flutter/.pub-cache/hosted/pub.dartlang.org/characters-1.2.0",
      "packageUri": "lib/",
      "languageVersion": "2.12"
    },
    {
      "name": "charcode",
      "rootUri": "file:///C:/src/flutter/.pub-cache/hosted/pub.dartlang.org/charcode-1.3.1",
      "packageUri": "lib/",
      "languageVersion": "2.12"
    },
    {
      "name": "clock",
      "rootUri": "file:///C:/src/flutter/.pub-cache/hosted/pub.dartlang.org/clock-1.1.0",
      "packageUri": "lib/",
      "languageVersion": "2.12"
    },
    {
      "name": "cloud_firestore",
      "rootUri": "file:///C:/src/flutter/.pub-cache/hosted/pub.dartlang.org/cloud_firestore-3.1.17",
      "packageUri": "lib/",
      "languageVersion": "2.16"
    },
    {
      "name": "cloud_firestore_platform_interface",
      "rootUri": "file:///C:/src/flutter/.pub-cache/hosted/pub.dartlang.org/cloud_firestore_platform_interface-5.5.7",
      "packageUri": "lib/",
      "languageVersion": "2.16"
    },
    {
      "name": "cloud_firestore_web",
      "rootUri": "file:///C:/src/flutter/.pub-cache/hosted/pub.dartlang.org/cloud_firestore_web-2.6.16",
      "packageUri": "lib/",
      "languageVersion": "2.16"
    },
    {
      "name": "collection",
      "rootUri": "file:///C:/src/flutter/.pub-cache/hosted/pub.dartlang.org/collection-1.16.0",
      "packageUri": "lib/",
      "languageVersion": "2.12"
    },
    {
      "name": "cupertino_icons",
      "rootUri": "file:///C:/src/flutter/.pub-cache/hosted/pub.dartlang.org/cupertino_icons-0.1.3",
      "packageUri": "lib/",
      "languageVersion": "2.0"
    },
    {
      "name": "fake_async",
      "rootUri": "file:///C:/src/flutter/.pub-cache/hosted/pub.dartlang.org/fake_async-1.3.0",
      "packageUri": "lib/",
      "languageVersion": "2.12"
    },
    {
      "name": "firebase_auth",
      "rootUri": "file:///C:/src/flutter/.pub-cache/hosted/pub.dartlang.org/firebase_auth-3.3.19",
      "packageUri": "lib/",
      "languageVersion": "2.16"
    },
    {
      "name": "firebase_auth_platform_interface",
      "rootUri": "file:///C:/src/flutter/.pub-cache/hosted/pub.dartlang.org/firebase_auth_platform_interface-6.2.7",
      "packageUri": "lib/",
      "languageVersion": "2.16"
    },
    {
      "name": "firebase_auth_web",
      "rootUri": "file:///C:/src/flutter/.pub-cache/hosted/pub.dartlang.org/firebase_auth_web-3.3.16",
      "packageUri": "lib/",
      "languageVersion": "2.16"
    },
    {
      "name": "firebase_core",
      "rootUri": "file:///C:/src/flutter/.pub-cache/hosted/pub.dartlang.org/firebase_core-1.17.1",
      "packageUri": "lib/",
      "languageVersion": "2.16"
    },
    {
      "name": "firebase_core_platform_interface",
      "rootUri": "file:///C:/src/flutter/.pub-cache/hosted/pub.dartlang.org/firebase_core_platform_interface-4.4.0",
      "packageUri": "lib/",
      "languageVersion": "2.16"
    },
    {
      "name": "firebase_core_web",
      "rootUri": "file:///C:/src/flutter/.pub-cache/hosted/pub.dartlang.org/firebase_core_web-1.6.4",
      "packageUri": "lib/",
      "languageVersion": "2.16"
    },
    {
      "name": "flutter",
      "rootUri": "file:///C:/src/flutter/packages/flutter",
      "packageUri": "lib/",
      "languageVersion": "2.12"
    },
    {
      "name": "flutter_test",
      "rootUri": "file:///C:/src/flutter/packages/flutter_test",
      "packageUri": "lib/",
      "languageVersion": "2.17"
    },
    {
      "name": "flutter_web_plugins",
      "rootUri": "file:///C:/src/flutter/packages/flutter_web_plugins",
      "packageUri": "lib/",
      "languageVersion": "2.17"
    },
    {
      "name": "http_parser",
      "rootUri": "file:///C:/src/flutter/.pub-cache/hosted/pub.dartlang.org/http_parser-4.0.1",
      "packageUri": "lib/",
      "languageVersion": "2.12"
    },
    {
      "name": "intl",
      "rootUri": "file:///C:/src/flutter/.pub-cache/hosted/pub.dartlang.org/intl-0.17.0",
      "packageUri": "lib/",
      "languageVersion": "2.12"
    },
    {
      "name": "js",
      "rootUri": "file:///C:/src/flutter/.pub-cache/hosted/pub.dartlang.org/js-0.6.4",
      "packageUri": "lib/",
      "languageVersion": "2.16"
    },
    {
      "name": "matcher",
      "rootUri": "file:///C:/src/flutter/.pub-cache/hosted/pub.dartlang.org/matcher-0.12.11",
      "packageUri": "lib/",
      "languageVersion": "2.12"
    },
    {
      "name": "material_color_utilities",
      "rootUri": "file:///C:/src/flutter/.pub-cache/hosted/pub.dartlang.org/material_color_utilities-0.1.4",
      "packageUri": "lib/",
      "languageVersion": "2.13"
    },
    {
      "name": "meta",
      "rootUri": "file:///C:/src/flutter/.pub-cache/hosted/pub.dartlang.org/meta-1.7.0",
      "packageUri": "lib/",
      "languageVersion": "2.12"
    },
    {
      "name": "modal_progress_hud_nsn",
      "rootUri": "file:///C:/src/flutter/.pub-cache/hosted/pub.dartlang.org/modal_progress_hud_nsn-0.2.1",
      "packageUri": "lib/",
      "languageVersion": "2.12"
    },
    {
      "name": "path",
      "rootUri": "file:///C:/src/flutter/.pub-cache/hosted/pub.dartlang.org/path-1.8.1",
      "packageUri": "lib/",
      "languageVersion": "2.12"
    },
    {
      "name": "plugin_platform_interface",
      "rootUri": "file:///C:/src/flutter/.pub-cache/hosted/pub.dartlang.org/plugin_platform_interface-2.1.2",
      "packageUri": "lib/",
      "languageVersion": "2.12"
    },
    {
      "name": "sky_engine",
      "rootUri": "file:///C:/src/flutter/bin/cache/pkg/sky_engine",
      "packageUri": "lib/",
      "languageVersion": "2.12"
    },
    {
      "name": "source_span",
      "rootUri": "file:///C:/src/flutter/.pub-cache/hosted/pub.dartlang.org/source_span-1.8.2",
      "packageUri": "lib/",
      "languageVersion": "2.14"
    },
    {
      "name": "stack_trace",
      "rootUri": "file:///C:/src/flutter/.pub-cache/hosted/pub.dartlang.org/stack_trace-1.10.0",
      "packageUri": "lib/",
      "languageVersion": "2.12"
    },
    {
      "name": "stream_channel",
      "rootUri": "file:///C:/src/flutter/.pub-cache/hosted/pub.dartlang.org/stream_channel-2.1.0",
      "packageUri": "lib/",
      "languageVersion": "2.12"
    },
    {
      "name": "string_scanner",
      "rootUri": "file:///C:/src/flutter/.pub-cache/hosted/pub.dartlang.org/string_scanner-1.1.0",
      "packageUri": "lib/",
      "languageVersion": "2.12"
    },
    {
      "name": "term_glyph",
      "rootUri": "file:///C:/src/flutter/.pub-cache/hosted/pub.dartlang.org/term_glyph-1.2.0",
      "packageUri": "lib/",
      "languageVersion": "2.12"
    },
    {
      "name": "test_api",
      "rootUri": "file:///C:/src/flutter/.pub-cache/hosted/pub.dartlang.org/test_api-0.4.9",
      "packageUri": "lib/",
      "languageVersion": "2.12"
    },
    {
      "name": "typed_data",
      "rootUri": "file:///C:/src/flutter/.pub-cache/hosted/pub.dartlang.org/typed_data-1.3.1",
      "packageUri": "lib/",
      "languageVersion": "2.12"
    },
    {
      "name": "vector_math",
      "rootUri": "file:///C:/src/flutter/.pub-cache/hosted/pub.dartlang.org/vector_math-2.1.2",
      "packageUri": "lib/",
      "languageVersion": "2.14"
    },
    {
      "name": "chat_app",
      "rootUri": "../",
      "packageUri": "lib/",
      "languageVersion": "2.12"
    }
  ],
  "generated": "2022-06-05T19:24:32.156127Z",
  "generator": "pub",
  "generatorVersion": "2.17.0"
}
